312, 1225, 19, 0
18, 1750, 35, 0
34, 829, 247, 0
33, 1826, 59, 464

658, 185, 1, 650
105, 940, 3, 753
82, 203, 226, 662
125, 298, 4, 1956

867, 141, 1, 485
71, 1156, 2, 572
65, 143, 471, 494
95, 232, 3, 2053
      
1839, 0, 0, 0
1647, 420, 2, 0
1018, 0, 253, 0
2083, 0, 2, 607

632, 292, 18, 949
183, 994, 24, 1007
109, 326, 34, 858
179, 485, 37, 2183

908, 122, 3, 884
154, 1042, 1, 1024
88, 151, 295, 751
135, 208, 3, 2541

85, 244, 0, 0
0, 296, 3, 0
0, 145, 66, 0
0, 293, 0, 95

193, 27, 6, 97
112, 62, 6, 142
53, 16, 16, 110
78, 23, 4, 282

225, 22, 2, 74
82, 123, 4, 113
39, 11, 62, 83
60, 16, 3, 308

263, 19, 6, 0
43, 245, 26, 0
21, 17, 156, 0
23, 33, 308, 0

260, 5, 4, 25
2, 257, 7, 52
2, 4, 21, 169
1, 10, 14, 327

262, 1, 1, 3
2, 295, 3, 17
2, 8, 66, 123
0, 20, 9, 348